(kicad_pcb (version 20171130) (host pcbnew "(5.1.4)-1")

  (general
    (thickness 1.6)
    (drawings 11)
    (tracks 66)
    (zones 0)
    (modules 5)
    (nets 3)
  )

  (page A4)
  (layers
    (0 F.Cu signal)
    (31 B.Cu signal)
    (32 B.Adhes user)
    (33 F.Adhes user)
    (34 B.Paste user)
    (35 F.Paste user)
    (36 B.SilkS user)
    (37 F.SilkS user)
    (38 B.Mask user)
    (39 F.Mask user)
    (40 Dwgs.User user)
    (41 Cmts.User user)
    (42 Eco1.User user)
    (43 Eco2.User user)
    (44 Edge.Cuts user)
    (45 Margin user)
    (46 B.CrtYd user)
    (47 F.CrtYd user)
    (48 B.Fab user)
    (49 F.Fab user)
  )

  (setup
    (last_trace_width 0.254)
    (user_trace_width 0.127)
    (user_trace_width 0.254)
    (user_trace_width 0.381)
    (user_trace_width 0.508)
    (user_trace_width 1.016)
    (trace_clearance 0.127)
    (zone_clearance 0.508)
    (zone_45_only no)
    (trace_min 0.0889)
    (via_size 0.45)
    (via_drill 0.2)
    (via_min_size 0.45)
    (via_min_drill 0.2)
    (uvia_size 0.3)
    (uvia_drill 0.1)
    (uvias_allowed no)
    (uvia_min_size 0.2)
    (uvia_min_drill 0.1)
    (edge_width 0.15)
    (segment_width 0.2)
    (pcb_text_width 0.3)
    (pcb_text_size 1.5 1.5)
    (mod_edge_width 0.1524)
    (mod_text_size 0.8128 0.8128)
    (mod_text_width 0.1524)
    (pad_size 7.4 7.4)
    (pad_drill 4.4)
    (pad_to_mask_clearance 0.051)
    (solder_mask_min_width 0.25)
    (aux_axis_origin 0 0)
    (visible_elements 7FFFFFFF)
    (pcbplotparams
      (layerselection 0x010fc_ffffffff)
      (usegerberextensions true)
      (usegerberattributes false)
      (usegerberadvancedattributes false)
      (creategerberjobfile false)
      (excludeedgelayer true)
      (linewidth 0.100000)
      (plotframeref false)
      (viasonmask false)
      (mode 1)
      (useauxorigin false)
      (hpglpennumber 1)
      (hpglpenspeed 20)
      (hpglpendiameter 15.000000)
      (psnegative false)
      (psa4output false)
      (plotreference true)
      (plotvalue true)
      (plotinvisibletext false)
      (padsonsilk false)
      (subtractmaskfromsilk false)
      (outputformat 1)
      (mirror false)
      (drillshape 0)
      (scaleselection 1)
      (outputdirectory "Gerber/"))
  )

  (net 0 "")
  (net 1 "Net-(H1-Pad1)")
  (net 2 "Net-(H2-Pad1)")

  (net_class Default "Esta es la clase de red por defecto."
    (clearance 0.127)
    (trace_width 0.254)
    (via_dia 0.45)
    (via_drill 0.2)
    (uvia_dia 0.3)
    (uvia_drill 0.1)
    (diff_pair_width 0.254)
    (diff_pair_gap 0.127)
    (add_net "Net-(H1-Pad1)")
    (add_net "Net-(H2-Pad1)")
  )

  (net_class Antenna50ohm ""
    (clearance 0.16)
    (trace_width 1.016)
    (via_dia 0.45)
    (via_drill 0.2)
    (uvia_dia 0.3)
    (uvia_drill 0.1)
    (diff_pair_width 0.254)
    (diff_pair_gap 0.127)
  )

  (net_class data-max15V-max500mA ""
    (clearance 0.127)
    (trace_width 0.127)
    (via_dia 0.45)
    (via_drill 0.2)
    (uvia_dia 0.3)
    (uvia_drill 0.1)
    (diff_pair_width 0.127)
    (diff_pair_gap 0.127)
  )

  (net_class data-max15V-max800mA ""
    (clearance 0.127)
    (trace_width 0.254)
    (via_dia 0.45)
    (via_drill 0.2)
    (uvia_dia 0.3)
    (uvia_drill 0.1)
    (diff_pair_width 0.254)
    (diff_pair_gap 0.127)
  )

  (net_class data-max30V-max500mA ""
    (clearance 0.254)
    (trace_width 0.127)
    (via_dia 0.45)
    (via_drill 0.2)
    (uvia_dia 0.3)
    (uvia_drill 0.1)
    (diff_pair_width 0.127)
    (diff_pair_gap 0.254)
  )

  (net_class data-max30V-max800mA ""
    (clearance 0.254)
    (trace_width 0.254)
    (via_dia 0.45)
    (via_drill 0.2)
    (uvia_dia 0.3)
    (uvia_drill 0.1)
    (diff_pair_width 0.254)
    (diff_pair_gap 0.254)
  )

  (net_class pwr-max250-max1000mA ""
    (clearance 6.447)
    (trace_width 0.381)
    (via_dia 0.45)
    (via_drill 0.254)
    (uvia_dia 0.3)
    (uvia_drill 0.1)
    (diff_pair_width 0.381)
    (diff_pair_gap 6.447)
  )

  (net_class pwr-max250-max2500mA ""
    (clearance 6.447)
    (trace_width 1.143)
    (via_dia 1.143)
    (via_drill 1.016)
    (uvia_dia 0.3)
    (uvia_drill 0.1)
    (diff_pair_width 1.143)
    (diff_pair_gap 6.447)
  )

  (net_class pwr-max30V-max1000mA ""
    (clearance 0.254)
    (trace_width 0.381)
    (via_dia 0.45)
    (via_drill 0.254)
    (uvia_dia 0.3)
    (uvia_drill 0.1)
    (diff_pair_width 0.381)
    (diff_pair_gap 0.254)
  )

  (net_class pwr-max30V-max2500mA ""
    (clearance 0.254)
    (trace_width 1.143)
    (via_dia 1.143)
    (via_drill 1.016)
    (uvia_dia 0.3)
    (uvia_drill 0.1)
    (diff_pair_width 1.143)
    (diff_pair_gap 0.254)
  )

  (net_class pwr-max30V-max5000mA ""
    (clearance 0.254)
    (trace_width 2.794)
    (via_dia 2.794)
    (via_drill 2.032)
    (uvia_dia 0.3)
    (uvia_drill 0.1)
    (diff_pair_width 2.794)
    (diff_pair_gap 0.254)
  )

  (module Symbol:Symbol_Attention_CopperTop_Small (layer F.Cu) (tedit 5F7617D4) (tstamp 5F7692FA)
    (at 44.5 119.25 90)
    (descr "Symbol, Attention, Copper Top, Small,")
    (tags "Symbol, Attention, Copper Top, Small,")
    (attr virtual)
    (fp_text reference REF** (at -0.127 -5.715 90) (layer F.SilkS) hide
      (effects (font (size 1 1) (thickness 0.15)))
    )
    (fp_text value Symbol_Attention_CopperTop_Small (at -0.381 4.572 90) (layer F.Fab)
      (effects (font (size 1 1) (thickness 0.15)))
    )
    (fp_line (start -0.508 -2.54) (end 0 -2.54) (layer F.SilkS) (width 0.381))
    (fp_line (start 0 1.016) (end -0.508 -2.54) (layer F.SilkS) (width 0.381))
    (fp_line (start 0.508 -2.54) (end 0 1.016) (layer F.SilkS) (width 0.381))
    (fp_line (start 0 -2.54) (end 0.508 -2.54) (layer F.SilkS) (width 0.381))
    (fp_line (start 0 0.889) (end 0.127 -2.54) (layer F.SilkS) (width 0.381))
    (fp_line (start 0 1.016) (end -0.127 -2.54) (layer F.SilkS) (width 0.381))
    (fp_circle (center 0 1.905) (end 0.35921 1.905) (layer F.SilkS) (width 0.381))
    (fp_circle (center 0 1.905) (end 0.127 1.905) (layer F.SilkS) (width 0.381))
    (fp_line (start -4.699 2.794) (end 0 -4.191) (layer F.SilkS) (width 0.381))
    (fp_line (start 4.699 2.794) (end -4.699 2.794) (layer F.SilkS) (width 0.381))
    (fp_line (start 0 -4.191) (end 4.699 2.794) (layer F.SilkS) (width 0.381))
  )

  (module zembia-footprints:9774100360R (layer F.Cu) (tedit 5F76063C) (tstamp 5F4F0B0C)
    (at 43.92338 70.231)
    (path /5F4EBFB7)
    (fp_text reference H2 (at -2.17338 -4.981) (layer F.SilkS)
      (effects (font (size 1 1) (thickness 0.15)))
    )
    (fp_text value MountingHole (at 0 -0.5) (layer F.Fab)
      (effects (font (size 1 1) (thickness 0.15)))
    )
    (fp_circle (center 0 0) (end 3.937 -0.254) (layer F.SilkS) (width 0.1))
    (pad 1 thru_hole circle (at 0 0) (size 7.4 7.4) (drill 4.4) (layers F.Cu F.Paste F.Mask)
      (net 2 "Net-(H2-Pad1)"))
    (model :Zembia_symbols_footp:9774100360R_rev1.stp
      (offset (xyz 0 0 10))
      (scale (xyz 1 1 1))
      (rotate (xyz 90 0 0))
    )
  )

  (module zembia-footprints:9774100360R (layer F.Cu) (tedit 5F76063C) (tstamp 5F76693A)
    (at 43.92338 53.231)
    (path /5F4EC21A)
    (fp_text reference H1 (at -2.0972 4.78514) (layer F.SilkS)
      (effects (font (size 1 1) (thickness 0.15)))
    )
    (fp_text value MountingHole (at 0 -0.5) (layer F.Fab)
      (effects (font (size 1 1) (thickness 0.15)))
    )
    (fp_circle (center 0 0) (end 3.937 -0.254) (layer F.SilkS) (width 0.1))
    (pad 1 thru_hole circle (at 0 0) (size 7.4 7.4) (drill 4.4) (layers F.Cu F.Paste F.Mask)
      (net 1 "Net-(H1-Pad1)"))
    (model :Zembia_symbols_footp:9774100360R_rev1.stp
      (offset (xyz 0 0 10))
      (scale (xyz 1 1 1))
      (rotate (xyz 90 0 0))
    )
  )

  (module zembia-footprints:Keystone-254 (layer F.Cu) (tedit 5F4977CE) (tstamp 5F4F0B26)
    (at 43.92338 131.87904 90)
    (path /5F4EB4E3)
    (fp_text reference TP2 (at 0 0.5 90) (layer F.SilkS)
      (effects (font (size 1 1) (thickness 0.15)))
    )
    (fp_text value TestPoint (at 0 -0.5 90) (layer F.Fab)
      (effects (font (size 1 1) (thickness 0.15)))
    )
    (fp_line (start -18.32 8) (end 3.22 8) (layer F.SilkS) (width 0.1))
    (fp_line (start 3.22 -8) (end -18.32 -8) (layer F.SilkS) (width 0.1))
    (fp_line (start 3.22 -8) (end 3.22 8) (layer F.SilkS) (width 0.1))
    (fp_line (start -18.32 -8) (end -18.32 8) (layer F.SilkS) (width 0.1))
    (pad 1 thru_hole rect (at -16 0 90) (size 4.24 3.3) (drill 1.85) (layers *.Cu *.Mask)
      (net 1 "Net-(H1-Pad1)"))
    (pad 1 thru_hole rect (at 0 0 90) (size 4.24 5.2) (drill 1.85) (layers *.Cu *.Mask)
      (net 1 "Net-(H1-Pad1)"))
    (model :Zembia_symbols_footp:keystone-PN254.STEP
      (offset (xyz -2 0 0.75))
      (scale (xyz 1 1 1))
      (rotate (xyz -90 0 -90))
    )
  )

  (module zembia-footprints:Keystone-254 (layer F.Cu) (tedit 5F4977CE) (tstamp 5F4F0B1C)
    (at 43.92338 92.64904 270)
    (path /5F4EBBDA)
    (fp_text reference TP1 (at 0 0.5 90) (layer F.SilkS)
      (effects (font (size 1 1) (thickness 0.15)))
    )
    (fp_text value TestPoint (at 0 -0.5 90) (layer F.Fab)
      (effects (font (size 1 1) (thickness 0.15)))
    )
    (fp_line (start -18.32 -8) (end -18.32 8) (layer F.SilkS) (width 0.1))
    (fp_line (start 3.22 -8) (end 3.22 8) (layer F.SilkS) (width 0.1))
    (fp_line (start 3.22 -8) (end -18.32 -8) (layer F.SilkS) (width 0.1))
    (fp_line (start -18.32 8) (end 3.22 8) (layer F.SilkS) (width 0.1))
    (pad 1 thru_hole rect (at 0 0 270) (size 4.24 5.2) (drill 1.85) (layers *.Cu *.Mask)
      (net 2 "Net-(H2-Pad1)"))
    (pad 1 thru_hole rect (at -16 0 270) (size 4.24 3.3) (drill 1.85) (layers *.Cu *.Mask)
      (net 2 "Net-(H2-Pad1)"))
    (model :Zembia_symbols_footp:keystone-PN254.STEP
      (offset (xyz -2 0 0.75))
      (scale (xyz 1 1 1))
      (rotate (xyz -90 0 -90))
    )
  )

  (gr_text "Advertencia, polaridad \ninversa puede dañar el \ndispositivo" (at 42.25 110 90) (layer F.SilkS)
    (effects (font (size 0.8 0.8) (thickness 0.2)))
  )
  (gr_text - (at 44 126.5) (layer F.SilkS) (tstamp 5F766EB7)
    (effects (font (size 4 4) (thickness 0.5)))
  )
  (gr_text + (at 44 98) (layer F.SilkS)
    (effects (font (size 4 4) (thickness 0.5)))
  )
  (gr_text - (at 47.3075 147.76704) (layer F.SilkS) (tstamp 5F4F15E3)
    (effects (font (size 1.5 1.5) (thickness 0.3)) (justify mirror))
  )
  (gr_text + (at 47.34306 76.33716) (layer F.SilkS) (tstamp 5F4F15E1)
    (effects (font (size 1.5 1.5) (thickness 0.3)) (justify mirror))
  )
  (gr_text - (at 44.12996 58.08218) (layer F.SilkS)
    (effects (font (size 1.5 1.5) (thickness 0.3)) (justify mirror))
  )
  (gr_text + (at 43.79976 64.99606) (layer F.SilkS)
    (effects (font (size 1.5 1.5) (thickness 0.3)) (justify mirror))
  )
  (gr_line (start 48.008944 47.631) (end 39.798944 47.631) (layer Edge.Cuts) (width 0.2))
  (gr_line (start 48.008944 151.631) (end 48.008944 47.631) (layer Edge.Cuts) (width 0.2))
  (gr_line (start 39.798944 47.631) (end 39.798944 151.631) (layer Edge.Cuts) (width 0.2))
  (gr_line (start 39.798944 151.631) (end 48.008944 151.631) (layer Edge.Cuts) (width 0.2))

  (segment (start 43.92338 147.87904) (end 43.92338 131.87904) (width 1.016) (layer B.Cu) (net 1))
  (via (at 41.0251 49.47402) (size 0.45) (drill 0.2) (layers F.Cu B.Cu) (net 1) (tstamp 21))
  (via (at 41.0251 56.97502) (size 0.45) (drill 0.2) (layers F.Cu B.Cu) (net 1) (tstamp 21))
  (via (at 41.0251 60.43702) (size 0.45) (drill 0.2) (layers F.Cu B.Cu) (net 1) (tstamp 21))
  (via (at 41.0251 63.89902) (size 0.45) (drill 0.2) (layers F.Cu B.Cu) (net 1) (tstamp 21))
  (via (at 41.0251 80.05502) (size 0.45) (drill 0.2) (layers F.Cu B.Cu) (net 1) (tstamp 21))
  (via (at 41.0251 83.51702) (size 0.45) (drill 0.2) (layers F.Cu B.Cu) (net 1) (tstamp 21))
  (via (at 41.0251 86.97902) (size 0.45) (drill 0.2) (layers F.Cu B.Cu) (net 1) (tstamp 21))
  (via (at 41.0251 96.21102) (size 0.45) (drill 0.2) (layers F.Cu B.Cu) (net 1) (tstamp 21))
  (via (at 41.0251 99.67302) (size 0.45) (drill 0.2) (layers F.Cu B.Cu) (net 1) (tstamp 21))
  (via (at 41.0251 103.13502) (size 0.45) (drill 0.2) (layers F.Cu B.Cu) (net 1) (tstamp 21))
  (via (at 41.0251 106.59702) (size 0.45) (drill 0.2) (layers F.Cu B.Cu) (net 1) (tstamp 21))
  (via (at 41.0251 110.05902) (size 0.45) (drill 0.2) (layers F.Cu B.Cu) (net 1) (tstamp 21))
  (via (at 41.0251 113.52102) (size 0.45) (drill 0.2) (layers F.Cu B.Cu) (net 1) (tstamp 21))
  (via (at 41.0251 116.98302) (size 0.45) (drill 0.2) (layers F.Cu B.Cu) (net 1) (tstamp 21))
  (via (at 41.0251 120.44502) (size 0.45) (drill 0.2) (layers F.Cu B.Cu) (net 1) (tstamp 21))
  (via (at 41.0251 123.90702) (size 0.45) (drill 0.2) (layers F.Cu B.Cu) (net 1) (tstamp 21))
  (via (at 41.0251 127.36902) (size 0.45) (drill 0.2) (layers F.Cu B.Cu) (net 1) (tstamp 21))
  (via (at 41.0251 135.44702) (size 0.45) (drill 0.2) (layers F.Cu B.Cu) (net 1) (tstamp 21))
  (via (at 41.0251 138.90902) (size 0.45) (drill 0.2) (layers F.Cu B.Cu) (net 1) (tstamp 21))
  (via (at 41.0251 142.37102) (size 0.45) (drill 0.2) (layers F.Cu B.Cu) (net 1) (tstamp 21))
  (via (at 42.7561 58.70602) (size 0.45) (drill 0.2) (layers F.Cu B.Cu) (net 1) (tstamp 21))
  (via (at 42.7561 62.16802) (size 0.45) (drill 0.2) (layers F.Cu B.Cu) (net 1) (tstamp 21))
  (via (at 42.7561 65.63002) (size 0.45) (drill 0.2) (layers F.Cu B.Cu) (net 1) (tstamp 21))
  (via (at 42.7561 97.94202) (size 0.45) (drill 0.2) (layers F.Cu B.Cu) (net 1) (tstamp 21))
  (via (at 42.7561 101.40402) (size 0.45) (drill 0.2) (layers F.Cu B.Cu) (net 1) (tstamp 21))
  (via (at 42.7561 104.86602) (size 0.45) (drill 0.2) (layers F.Cu B.Cu) (net 1) (tstamp 21))
  (via (at 42.7561 108.32802) (size 0.45) (drill 0.2) (layers F.Cu B.Cu) (net 1) (tstamp 21))
  (via (at 42.7561 111.79002) (size 0.45) (drill 0.2) (layers F.Cu B.Cu) (net 1) (tstamp 21))
  (via (at 42.7561 115.25202) (size 0.45) (drill 0.2) (layers F.Cu B.Cu) (net 1) (tstamp 21))
  (via (at 42.7561 118.71402) (size 0.45) (drill 0.2) (layers F.Cu B.Cu) (net 1) (tstamp 21))
  (via (at 42.7561 122.17602) (size 0.45) (drill 0.2) (layers F.Cu B.Cu) (net 1) (tstamp 21))
  (via (at 42.7561 125.63802) (size 0.45) (drill 0.2) (layers F.Cu B.Cu) (net 1) (tstamp 21))
  (via (at 43.9101 127.94602) (size 0.45) (drill 0.2) (layers F.Cu B.Cu) (net 1) (tstamp 21))
  (via (at 44.4871 60.43702) (size 0.45) (drill 0.2) (layers F.Cu B.Cu) (net 1) (tstamp 21))
  (via (at 44.4871 63.89902) (size 0.45) (drill 0.2) (layers F.Cu B.Cu) (net 1) (tstamp 21))
  (via (at 44.4871 96.21102) (size 0.45) (drill 0.2) (layers F.Cu B.Cu) (net 1) (tstamp 21))
  (via (at 44.4871 99.67302) (size 0.45) (drill 0.2) (layers F.Cu B.Cu) (net 1) (tstamp 21))
  (via (at 44.4871 103.13502) (size 0.45) (drill 0.2) (layers F.Cu B.Cu) (net 1) (tstamp 21))
  (via (at 44.4871 106.59702) (size 0.45) (drill 0.2) (layers F.Cu B.Cu) (net 1) (tstamp 21))
  (via (at 44.4871 110.05902) (size 0.45) (drill 0.2) (layers F.Cu B.Cu) (net 1) (tstamp 21))
  (via (at 44.4871 113.52102) (size 0.45) (drill 0.2) (layers F.Cu B.Cu) (net 1) (tstamp 21))
  (via (at 44.4871 116.98302) (size 0.45) (drill 0.2) (layers F.Cu B.Cu) (net 1) (tstamp 21))
  (via (at 44.4871 120.44502) (size 0.45) (drill 0.2) (layers F.Cu B.Cu) (net 1) (tstamp 21))
  (via (at 44.4871 123.90702) (size 0.45) (drill 0.2) (layers F.Cu B.Cu) (net 1) (tstamp 21))
  (via (at 45.6411 57.55202) (size 0.45) (drill 0.2) (layers F.Cu B.Cu) (net 1) (tstamp 21))
  (via (at 45.6411 80.63202) (size 0.45) (drill 0.2) (layers F.Cu B.Cu) (net 1) (tstamp 21))
  (via (at 45.6411 84.09402) (size 0.45) (drill 0.2) (layers F.Cu B.Cu) (net 1) (tstamp 21))
  (via (at 45.6411 87.55602) (size 0.45) (drill 0.2) (layers F.Cu B.Cu) (net 1) (tstamp 21))
  (via (at 45.6411 126.21502) (size 0.45) (drill 0.2) (layers F.Cu B.Cu) (net 1) (tstamp 21))
  (via (at 45.6411 135.44702) (size 0.45) (drill 0.2) (layers F.Cu B.Cu) (net 1) (tstamp 21))
  (via (at 45.6411 138.90902) (size 0.45) (drill 0.2) (layers F.Cu B.Cu) (net 1) (tstamp 21))
  (via (at 45.6411 142.37102) (size 0.45) (drill 0.2) (layers F.Cu B.Cu) (net 1) (tstamp 21))
  (via (at 46.2181 62.16802) (size 0.45) (drill 0.2) (layers F.Cu B.Cu) (net 1) (tstamp 21))
  (via (at 46.2181 65.63002) (size 0.45) (drill 0.2) (layers F.Cu B.Cu) (net 1) (tstamp 21))
  (via (at 46.2181 97.94202) (size 0.45) (drill 0.2) (layers F.Cu B.Cu) (net 1) (tstamp 21))
  (via (at 46.2181 101.40402) (size 0.45) (drill 0.2) (layers F.Cu B.Cu) (net 1) (tstamp 21))
  (via (at 46.2181 104.86602) (size 0.45) (drill 0.2) (layers F.Cu B.Cu) (net 1) (tstamp 21))
  (via (at 46.2181 108.32802) (size 0.45) (drill 0.2) (layers F.Cu B.Cu) (net 1) (tstamp 21))
  (via (at 46.2181 111.79002) (size 0.45) (drill 0.2) (layers F.Cu B.Cu) (net 1) (tstamp 21))
  (via (at 46.2181 115.25202) (size 0.45) (drill 0.2) (layers F.Cu B.Cu) (net 1) (tstamp 21))
  (via (at 46.2181 118.71402) (size 0.45) (drill 0.2) (layers F.Cu B.Cu) (net 1) (tstamp 21))
  (via (at 46.2181 122.17602) (size 0.45) (drill 0.2) (layers F.Cu B.Cu) (net 1) (tstamp 21))
  (via (at 46.7951 49.47402) (size 0.45) (drill 0.2) (layers F.Cu B.Cu) (net 1) (tstamp 21))
  (segment (start 43.92338 76.64904) (end 43.92338 70.231) (width 1.016) (layer F.Cu) (net 2))
  (segment (start 43.92338 92.64904) (end 43.92338 76.64904) (width 1.016) (layer F.Cu) (net 2))

  (zone (net 1) (net_name "Net-(H1-Pad1)") (layer F.Cu) (tstamp 0) (hatch edge 0.508)
    (connect_pads (clearance 0.508))
    (min_thickness 0.254)
    (fill yes (arc_segments 32) (thermal_gap 0.508) (thermal_bridge_width 0.508))
    (polygon
      (pts
        (xy 17.9451 32.16402) (xy 19.34464 163.45154) (xy 106.96194 160.9725) (xy 84.56676 35.00628)
      )
    )
    (filled_polygon
      (pts
        (xy 40.556166 72.994401) (xy 41.159979 73.598214) (xy 41.847155 74.057371) (xy 41.822195 74.077855) (xy 41.742843 74.174546)
        (xy 41.683878 74.28486) (xy 41.647568 74.404558) (xy 41.635308 74.52904) (xy 41.635308 78.76904) (xy 41.647568 78.893522)
        (xy 41.683878 79.01322) (xy 41.742843 79.123534) (xy 41.822195 79.220225) (xy 41.918886 79.299577) (xy 42.0292 79.358542)
        (xy 42.148898 79.394852) (xy 42.27338 79.407112) (xy 42.780381 79.407112) (xy 42.78038 89.890968) (xy 41.32338 89.890968)
        (xy 41.198898 89.903228) (xy 41.0792 89.939538) (xy 40.968886 89.998503) (xy 40.872195 90.077855) (xy 40.792843 90.174546)
        (xy 40.733878 90.28486) (xy 40.697568 90.404558) (xy 40.685308 90.52904) (xy 40.685308 94.76904) (xy 40.697568 94.893522)
        (xy 40.733878 95.01322) (xy 40.792843 95.123534) (xy 40.872195 95.220225) (xy 40.968886 95.299577) (xy 41.0792 95.358542)
        (xy 41.198898 95.394852) (xy 41.32338 95.407112) (xy 46.52338 95.407112) (xy 46.647862 95.394852) (xy 46.76756 95.358542)
        (xy 46.877874 95.299577) (xy 46.974565 95.220225) (xy 47.053917 95.123534) (xy 47.112882 95.01322) (xy 47.149192 94.893522)
        (xy 47.161452 94.76904) (xy 47.161452 90.52904) (xy 47.149192 90.404558) (xy 47.112882 90.28486) (xy 47.053917 90.174546)
        (xy 46.974565 90.077855) (xy 46.877874 89.998503) (xy 46.76756 89.939538) (xy 46.647862 89.903228) (xy 46.52338 89.890968)
        (xy 45.06638 89.890968) (xy 45.06638 79.407112) (xy 45.57338 79.407112) (xy 45.697862 79.394852) (xy 45.81756 79.358542)
        (xy 45.927874 79.299577) (xy 46.024565 79.220225) (xy 46.103917 79.123534) (xy 46.162882 79.01322) (xy 46.199192 78.893522)
        (xy 46.211452 78.76904) (xy 46.211452 74.52904) (xy 46.199192 74.404558) (xy 46.162882 74.28486) (xy 46.103917 74.174546)
        (xy 46.024565 74.077855) (xy 45.999605 74.057371) (xy 46.686781 73.598214) (xy 47.273945 73.01105) (xy 47.273944 150.896)
        (xy 40.533944 150.896) (xy 40.533944 149.99904) (xy 41.635308 149.99904) (xy 41.647568 150.123522) (xy 41.683878 150.24322)
        (xy 41.742843 150.353534) (xy 41.822195 150.450225) (xy 41.918886 150.529577) (xy 42.0292 150.588542) (xy 42.148898 150.624852)
        (xy 42.27338 150.637112) (xy 43.63763 150.63404) (xy 43.79638 150.47529) (xy 43.79638 148.00604) (xy 44.05038 148.00604)
        (xy 44.05038 150.47529) (xy 44.20913 150.63404) (xy 45.57338 150.637112) (xy 45.697862 150.624852) (xy 45.81756 150.588542)
        (xy 45.927874 150.529577) (xy 46.024565 150.450225) (xy 46.103917 150.353534) (xy 46.162882 150.24322) (xy 46.199192 150.123522)
        (xy 46.211452 149.99904) (xy 46.20838 148.16479) (xy 46.04963 148.00604) (xy 44.05038 148.00604) (xy 43.79638 148.00604)
        (xy 41.79713 148.00604) (xy 41.63838 148.16479) (xy 41.635308 149.99904) (xy 40.533944 149.99904) (xy 40.533944 145.75904)
        (xy 41.635308 145.75904) (xy 41.63838 147.59329) (xy 41.79713 147.75204) (xy 43.79638 147.75204) (xy 43.79638 145.28279)
        (xy 44.05038 145.28279) (xy 44.05038 147.75204) (xy 46.04963 147.75204) (xy 46.20838 147.59329) (xy 46.211452 145.75904)
        (xy 46.199192 145.634558) (xy 46.162882 145.51486) (xy 46.103917 145.404546) (xy 46.024565 145.307855) (xy 45.927874 145.228503)
        (xy 45.81756 145.169538) (xy 45.697862 145.133228) (xy 45.57338 145.120968) (xy 44.20913 145.12404) (xy 44.05038 145.28279)
        (xy 43.79638 145.28279) (xy 43.63763 145.12404) (xy 42.27338 145.120968) (xy 42.148898 145.133228) (xy 42.0292 145.169538)
        (xy 41.918886 145.228503) (xy 41.822195 145.307855) (xy 41.742843 145.404546) (xy 41.683878 145.51486) (xy 41.647568 145.634558)
        (xy 41.635308 145.75904) (xy 40.533944 145.75904) (xy 40.533944 133.99904) (xy 40.685308 133.99904) (xy 40.697568 134.123522)
        (xy 40.733878 134.24322) (xy 40.792843 134.353534) (xy 40.872195 134.450225) (xy 40.968886 134.529577) (xy 41.0792 134.588542)
        (xy 41.198898 134.624852) (xy 41.32338 134.637112) (xy 43.63763 134.63404) (xy 43.79638 134.47529) (xy 43.79638 132.00604)
        (xy 44.05038 132.00604) (xy 44.05038 134.47529) (xy 44.20913 134.63404) (xy 46.52338 134.637112) (xy 46.647862 134.624852)
        (xy 46.76756 134.588542) (xy 46.877874 134.529577) (xy 46.974565 134.450225) (xy 47.053917 134.353534) (xy 47.112882 134.24322)
        (xy 47.149192 134.123522) (xy 47.161452 133.99904) (xy 47.15838 132.16479) (xy 46.99963 132.00604) (xy 44.05038 132.00604)
        (xy 43.79638 132.00604) (xy 40.84713 132.00604) (xy 40.68838 132.16479) (xy 40.685308 133.99904) (xy 40.533944 133.99904)
        (xy 40.533944 129.75904) (xy 40.685308 129.75904) (xy 40.68838 131.59329) (xy 40.84713 131.75204) (xy 43.79638 131.75204)
        (xy 43.79638 129.28279) (xy 44.05038 129.28279) (xy 44.05038 131.75204) (xy 46.99963 131.75204) (xy 47.15838 131.59329)
        (xy 47.161452 129.75904) (xy 47.149192 129.634558) (xy 47.112882 129.51486) (xy 47.053917 129.404546) (xy 46.974565 129.307855)
        (xy 46.877874 129.228503) (xy 46.76756 129.169538) (xy 46.647862 129.133228) (xy 46.52338 129.120968) (xy 44.20913 129.12404)
        (xy 44.05038 129.28279) (xy 43.79638 129.28279) (xy 43.63763 129.12404) (xy 41.32338 129.120968) (xy 41.198898 129.133228)
        (xy 41.0792 129.169538) (xy 40.968886 129.228503) (xy 40.872195 129.307855) (xy 40.792843 129.404546) (xy 40.733878 129.51486)
        (xy 40.697568 129.634558) (xy 40.685308 129.75904) (xy 40.533944 129.75904) (xy 40.533944 72.961143)
      )
    )
    (filled_polygon
      (pts
        (xy 47.273945 50.582851) (xy 46.97971 50.354275) (xy 44.102985 53.231) (xy 46.97971 56.107725) (xy 47.273945 55.879149)
        (xy 47.273945 67.45095) (xy 46.686781 66.863786) (xy 45.976772 66.389373) (xy 45.187853 66.062592) (xy 44.35034 65.896)
        (xy 43.49642 65.896) (xy 42.658907 66.062592) (xy 41.869988 66.389373) (xy 41.159979 66.863786) (xy 40.556166 67.467599)
        (xy 40.533944 67.500857) (xy 40.533944 56.28733) (xy 41.046655 56.28733) (xy 41.466836 56.828208) (xy 42.215818 57.238336)
        (xy 43.030422 57.494465) (xy 43.87934 57.586751) (xy 44.729951 57.511648) (xy 45.549566 57.272042) (xy 46.306688 56.877141)
        (xy 46.379924 56.828208) (xy 46.800105 56.28733) (xy 43.92338 53.410605) (xy 41.046655 56.28733) (xy 40.533944 56.28733)
        (xy 40.533944 55.848952) (xy 40.86705 56.107725) (xy 43.743775 53.231) (xy 40.86705 50.354275) (xy 40.533944 50.613048)
        (xy 40.533944 50.17467) (xy 41.046655 50.17467) (xy 43.92338 53.051395) (xy 46.800105 50.17467) (xy 46.379924 49.633792)
        (xy 45.630942 49.223664) (xy 44.816338 48.967535) (xy 43.96742 48.875249) (xy 43.116809 48.950352) (xy 42.297194 49.189958)
        (xy 41.540072 49.584859) (xy 41.466836 49.633792) (xy 41.046655 50.17467) (xy 40.533944 50.17467) (xy 40.533944 48.366)
        (xy 47.273945 48.366)
      )
    )
  )
  (zone (net 1) (net_name "Net-(H1-Pad1)") (layer B.Cu) (tstamp 5F766E1B) (hatch edge 0.508)
    (connect_pads (clearance 0.508))
    (min_thickness 0.254)
    (fill yes (arc_segments 32) (thermal_gap 0.508) (thermal_bridge_width 0.508))
    (polygon
      (pts
        (xy 17.9451 32.16402) (xy 19.34464 163.45154) (xy 106.96194 160.9725) (xy 84.56676 35.00628)
      )
    )
    (filled_polygon
      (pts
        (xy 47.273944 150.896) (xy 40.533944 150.896) (xy 40.533944 149.99904) (xy 41.635308 149.99904) (xy 41.647568 150.123522)
        (xy 41.683878 150.24322) (xy 41.742843 150.353534) (xy 41.822195 150.450225) (xy 41.918886 150.529577) (xy 42.0292 150.588542)
        (xy 42.148898 150.624852) (xy 42.27338 150.637112) (xy 43.63763 150.63404) (xy 43.79638 150.47529) (xy 43.79638 148.00604)
        (xy 44.05038 148.00604) (xy 44.05038 150.47529) (xy 44.20913 150.63404) (xy 45.57338 150.637112) (xy 45.697862 150.624852)
        (xy 45.81756 150.588542) (xy 45.927874 150.529577) (xy 46.024565 150.450225) (xy 46.103917 150.353534) (xy 46.162882 150.24322)
        (xy 46.199192 150.123522) (xy 46.211452 149.99904) (xy 46.20838 148.16479) (xy 46.04963 148.00604) (xy 44.05038 148.00604)
        (xy 43.79638 148.00604) (xy 41.79713 148.00604) (xy 41.63838 148.16479) (xy 41.635308 149.99904) (xy 40.533944 149.99904)
        (xy 40.533944 145.75904) (xy 41.635308 145.75904) (xy 41.63838 147.59329) (xy 41.79713 147.75204) (xy 43.79638 147.75204)
        (xy 43.79638 145.28279) (xy 44.05038 145.28279) (xy 44.05038 147.75204) (xy 46.04963 147.75204) (xy 46.20838 147.59329)
        (xy 46.211452 145.75904) (xy 46.199192 145.634558) (xy 46.162882 145.51486) (xy 46.103917 145.404546) (xy 46.024565 145.307855)
        (xy 45.927874 145.228503) (xy 45.81756 145.169538) (xy 45.697862 145.133228) (xy 45.57338 145.120968) (xy 44.20913 145.12404)
        (xy 44.05038 145.28279) (xy 43.79638 145.28279) (xy 43.63763 145.12404) (xy 42.27338 145.120968) (xy 42.148898 145.133228)
        (xy 42.0292 145.169538) (xy 41.918886 145.228503) (xy 41.822195 145.307855) (xy 41.742843 145.404546) (xy 41.683878 145.51486)
        (xy 41.647568 145.634558) (xy 41.635308 145.75904) (xy 40.533944 145.75904) (xy 40.533944 133.99904) (xy 40.685308 133.99904)
        (xy 40.697568 134.123522) (xy 40.733878 134.24322) (xy 40.792843 134.353534) (xy 40.872195 134.450225) (xy 40.968886 134.529577)
        (xy 41.0792 134.588542) (xy 41.198898 134.624852) (xy 41.32338 134.637112) (xy 43.63763 134.63404) (xy 43.79638 134.47529)
        (xy 43.79638 132.00604) (xy 44.05038 132.00604) (xy 44.05038 134.47529) (xy 44.20913 134.63404) (xy 46.52338 134.637112)
        (xy 46.647862 134.624852) (xy 46.76756 134.588542) (xy 46.877874 134.529577) (xy 46.974565 134.450225) (xy 47.053917 134.353534)
        (xy 47.112882 134.24322) (xy 47.149192 134.123522) (xy 47.161452 133.99904) (xy 47.15838 132.16479) (xy 46.99963 132.00604)
        (xy 44.05038 132.00604) (xy 43.79638 132.00604) (xy 40.84713 132.00604) (xy 40.68838 132.16479) (xy 40.685308 133.99904)
        (xy 40.533944 133.99904) (xy 40.533944 129.75904) (xy 40.685308 129.75904) (xy 40.68838 131.59329) (xy 40.84713 131.75204)
        (xy 43.79638 131.75204) (xy 43.79638 129.28279) (xy 44.05038 129.28279) (xy 44.05038 131.75204) (xy 46.99963 131.75204)
        (xy 47.15838 131.59329) (xy 47.161452 129.75904) (xy 47.149192 129.634558) (xy 47.112882 129.51486) (xy 47.053917 129.404546)
        (xy 46.974565 129.307855) (xy 46.877874 129.228503) (xy 46.76756 129.169538) (xy 46.647862 129.133228) (xy 46.52338 129.120968)
        (xy 44.20913 129.12404) (xy 44.05038 129.28279) (xy 43.79638 129.28279) (xy 43.63763 129.12404) (xy 41.32338 129.120968)
        (xy 41.198898 129.133228) (xy 41.0792 129.169538) (xy 40.968886 129.228503) (xy 40.872195 129.307855) (xy 40.792843 129.404546)
        (xy 40.733878 129.51486) (xy 40.697568 129.634558) (xy 40.685308 129.75904) (xy 40.533944 129.75904) (xy 40.533944 90.52904)
        (xy 40.685308 90.52904) (xy 40.685308 94.76904) (xy 40.697568 94.893522) (xy 40.733878 95.01322) (xy 40.792843 95.123534)
        (xy 40.872195 95.220225) (xy 40.968886 95.299577) (xy 41.0792 95.358542) (xy 41.198898 95.394852) (xy 41.32338 95.407112)
        (xy 46.52338 95.407112) (xy 46.647862 95.394852) (xy 46.76756 95.358542) (xy 46.877874 95.299577) (xy 46.974565 95.220225)
        (xy 47.053917 95.123534) (xy 47.112882 95.01322) (xy 47.149192 94.893522) (xy 47.161452 94.76904) (xy 47.161452 90.52904)
        (xy 47.149192 90.404558) (xy 47.112882 90.28486) (xy 47.053917 90.174546) (xy 46.974565 90.077855) (xy 46.877874 89.998503)
        (xy 46.76756 89.939538) (xy 46.647862 89.903228) (xy 46.52338 89.890968) (xy 41.32338 89.890968) (xy 41.198898 89.903228)
        (xy 41.0792 89.939538) (xy 40.968886 89.998503) (xy 40.872195 90.077855) (xy 40.792843 90.174546) (xy 40.733878 90.28486)
        (xy 40.697568 90.404558) (xy 40.685308 90.52904) (xy 40.533944 90.52904) (xy 40.533944 74.52904) (xy 41.635308 74.52904)
        (xy 41.635308 78.76904) (xy 41.647568 78.893522) (xy 41.683878 79.01322) (xy 41.742843 79.123534) (xy 41.822195 79.220225)
        (xy 41.918886 79.299577) (xy 42.0292 79.358542) (xy 42.148898 79.394852) (xy 42.27338 79.407112) (xy 45.57338 79.407112)
        (xy 45.697862 79.394852) (xy 45.81756 79.358542) (xy 45.927874 79.299577) (xy 46.024565 79.220225) (xy 46.103917 79.123534)
        (xy 46.162882 79.01322) (xy 46.199192 78.893522) (xy 46.211452 78.76904) (xy 46.211452 74.52904) (xy 46.199192 74.404558)
        (xy 46.162882 74.28486) (xy 46.103917 74.174546) (xy 46.024565 74.077855) (xy 45.927874 73.998503) (xy 45.81756 73.939538)
        (xy 45.697862 73.903228) (xy 45.57338 73.890968) (xy 42.27338 73.890968) (xy 42.148898 73.903228) (xy 42.0292 73.939538)
        (xy 41.918886 73.998503) (xy 41.822195 74.077855) (xy 41.742843 74.174546) (xy 41.683878 74.28486) (xy 41.647568 74.404558)
        (xy 41.635308 74.52904) (xy 40.533944 74.52904) (xy 40.533944 69.951777) (xy 41.08838 69.951777) (xy 41.08838 70.510223)
        (xy 41.197328 71.057939) (xy 41.411036 71.573876) (xy 41.721292 72.038207) (xy 42.116173 72.433088) (xy 42.580504 72.743344)
        (xy 43.096441 72.957052) (xy 43.644157 73.066) (xy 44.202603 73.066) (xy 44.750319 72.957052) (xy 45.266256 72.743344)
        (xy 45.730587 72.433088) (xy 46.125468 72.038207) (xy 46.435724 71.573876) (xy 46.649432 71.057939) (xy 46.75838 70.510223)
        (xy 46.75838 69.951777) (xy 46.649432 69.404061) (xy 46.435724 68.888124) (xy 46.125468 68.423793) (xy 45.730587 68.028912)
        (xy 45.266256 67.718656) (xy 44.750319 67.504948) (xy 44.202603 67.396) (xy 43.644157 67.396) (xy 43.096441 67.504948)
        (xy 42.580504 67.718656) (xy 42.116173 68.028912) (xy 41.721292 68.423793) (xy 41.411036 68.888124) (xy 41.197328 69.404061)
        (xy 41.08838 69.951777) (xy 40.533944 69.951777) (xy 40.533944 52.951777) (xy 41.08838 52.951777) (xy 41.08838 53.510223)
        (xy 41.197328 54.057939) (xy 41.411036 54.573876) (xy 41.721292 55.038207) (xy 42.116173 55.433088) (xy 42.580504 55.743344)
        (xy 43.096441 55.957052) (xy 43.644157 56.066) (xy 44.202603 56.066) (xy 44.750319 55.957052) (xy 45.266256 55.743344)
        (xy 45.730587 55.433088) (xy 46.125468 55.038207) (xy 46.435724 54.573876) (xy 46.649432 54.057939) (xy 46.75838 53.510223)
        (xy 46.75838 52.951777) (xy 46.649432 52.404061) (xy 46.435724 51.888124) (xy 46.125468 51.423793) (xy 45.730587 51.028912)
        (xy 45.266256 50.718656) (xy 44.750319 50.504948) (xy 44.202603 50.396) (xy 43.644157 50.396) (xy 43.096441 50.504948)
        (xy 42.580504 50.718656) (xy 42.116173 51.028912) (xy 41.721292 51.423793) (xy 41.411036 51.888124) (xy 41.197328 52.404061)
        (xy 41.08838 52.951777) (xy 40.533944 52.951777) (xy 40.533944 48.366) (xy 47.273945 48.366)
      )
    )
  )
)
