EESchema Schematic File Version 4
LIBS:orishot-cache
EELAYER 30 0
EELAYER END
$Descr A4 11693 8268
encoding utf-8
Sheet 2 3
Title ""
Date ""
Rev ""
Comp ""
Comment1 ""
Comment2 ""
Comment3 ""
Comment4 ""
$EndDescr
Wire Wire Line
	5425 3500 5425 3525
$Comp
L power:GND #PWR0106
U 1 1 5D14CBDC
P 4075 4625
F 0 "#PWR0106" H 4075 4375 50  0001 C CNN
F 1 "GND" H 4080 4452 50  0000 C CNN
F 2 "" H 4075 4625 50  0001 C CNN
F 3 "" H 4075 4625 50  0001 C CNN
	1    4075 4625
	1    0    0    -1  
$EndComp
$Comp
L power:GND #PWR0107
U 1 1 5D14CC15
P 5425 4275
F 0 "#PWR0107" H 5425 4025 50  0001 C CNN
F 1 "GND" H 5430 4102 50  0000 C CNN
F 2 "" H 5425 4275 50  0001 C CNN
F 3 "" H 5425 4275 50  0001 C CNN
	1    5425 4275
	1    0    0    -1  
$EndComp
Wire Wire Line
	5425 3825 5425 4275
Text Label 3575 3000 2    60   ~ 0
GND
Text HLabel 1775 3000 0    60   BiDi ~ 0
IMU_SDA
Text HLabel 1775 4000 0    60   Input ~ 0
IMU_SCL
$Comp
L Transistor_FET:BSS138 Q1
U 1 1 5D14CE10
P 2375 2900
F 0 "Q1" V 2625 2900 50  0000 C CNN
F 1 "BSS138" V 2716 2900 50  0000 C CNN
F 2 "Package_TO_SOT_SMD:SOT-23" H 2575 2825 50  0001 L CIN
F 3 "https://www.fairchildsemi.com/datasheets/BS/BSS138.pdf" H 2375 2900 50  0001 L CNN
F 4 "BSS138" V 2375 2900 50  0001 C CNN "MPN"
	1    2375 2900
	0    -1   1    0   
$EndComp
Wire Wire Line
	2375 2700 2375 2600
Wire Wire Line
	2575 3000 2850 3000
Wire Wire Line
	2850 2650 2850 2600
Wire Wire Line
	2850 2600 2375 2600
Wire Wire Line
	2850 2950 2850 3000
Wire Wire Line
	2175 3000 1950 3000
Wire Wire Line
	1950 2950 1950 3000
Connection ~ 1950 3000
Wire Wire Line
	1950 3000 1775 3000
Wire Wire Line
	1950 2225 1950 2650
Text Label 1950 2225 0    60   ~ 0
3V3
$Comp
L Transistor_FET:BSS138 Q2
U 1 1 5D154825
P 2375 3900
F 0 "Q2" V 2625 3900 50  0000 C CNN
F 1 "BSS138" V 2716 3900 50  0000 C CNN
F 2 "Package_TO_SOT_SMD:SOT-23" H 2575 3825 50  0001 L CIN
F 3 "https://www.fairchildsemi.com/datasheets/BS/BSS138.pdf" H 2375 3900 50  0001 L CNN
F 4 "BSS138" V 2375 3900 50  0001 C CNN "MPN"
	1    2375 3900
	0    -1   1    0   
$EndComp
Wire Wire Line
	2375 3700 2375 3600
Wire Wire Line
	2575 4000 2850 4000
Wire Wire Line
	2850 3650 2850 3600
Wire Wire Line
	2850 3600 2375 3600
Wire Wire Line
	2850 3950 2850 4000
Wire Wire Line
	2175 4000 1950 4000
Wire Wire Line
	1950 3950 1950 4000
Connection ~ 1950 4000
Wire Wire Line
	1950 4000 1775 4000
Wire Wire Line
	1950 3225 1950 3650
Text Label 1950 3225 0    60   ~ 0
3V3
Text Label 2850 2600 1    60   ~ 0
VDDIO
Text Label 2850 3600 1    60   ~ 0
VDDIO
Text Label 3975 2325 2    60   ~ 0
VDDIO
Wire Wire Line
	2850 4000 3050 4000
Wire Wire Line
	3050 4000 3050 3200
Connection ~ 2850 4000
Wire Wire Line
	825  750  1125 750 
Text Label 1125 750  0    60   ~ 0
3V3
$Comp
L power:GND #PWR0108
U 1 1 5D1568C0
P 4175 1850
F 0 "#PWR0108" H 4175 1600 50  0001 C CNN
F 1 "GND" H 4180 1677 50  0000 C CNN
F 2 "" H 4175 1850 50  0001 C CNN
F 3 "" H 4175 1850 50  0001 C CNN
	1    4175 1850
	-1   0    0    1   
$EndComp
Wire Wire Line
	4175 1850 4175 1975
$Comp
L power:GND #PWR0109
U 1 1 5D1577CE
P 3975 1850
F 0 "#PWR0109" H 3975 1600 50  0001 C CNN
F 1 "GND" H 3980 1677 50  0000 C CNN
F 2 "" H 3975 1850 50  0001 C CNN
F 3 "" H 3975 1850 50  0001 C CNN
	1    3975 1850
	-1   0    0    1   
$EndComp
Wire Wire Line
	3975 1850 3975 1975
Text Label 3175 3300 3    60   ~ 0
VDDIO
Wire Wire Line
	825  900  1125 900 
Text Label 1125 900  0    60   ~ 0
VDDIO
NoConn ~ 4575 3300
NoConn ~ 4575 3200
NoConn ~ 3575 3500
Text Label 4175 2325 0    60   ~ 0
VDDIO
$Comp
L Device:R R4
U 1 1 5D15393B
P 2850 2800
F 0 "R4" H 2920 2846 50  0000 L CNN
F 1 "10k" H 2920 2755 50  0000 L CNN
F 2 "Resistor_SMD:R_0603_1608Metric" V 2780 2800 50  0001 C CNN
F 3 "" H 2850 2800 50  0001 C CNN
F 4 "CR0603-JW-103ELF" H 2850 2800 60  0001 C CNN "MPN"
	1    2850 2800
	-1   0    0    -1  
$EndComp
$Comp
L Device:C C5
U 1 1 5D156E78
P 3975 2125
F 0 "C5" H 4089 2171 50  0000 L CNN
F 1 "0.1uF" H 4089 2080 50  0000 L CNN
F 2 "Capacitor_SMD:C_0603_1608Metric" H 4013 1975 50  0001 C CNN
F 3 "" H 3975 2125 50  0001 C CNN
F 4 "C0603C104M4RAC7411" H 3975 2125 60  0001 C CNN "MPN"
	1    3975 2125
	-1   0    0    -1  
$EndComp
$Comp
L Sensor_Motion:ICM-20948 U2
U 1 1 5D14D0FD
P 4075 3300
F 0 "U2" H 4075 2314 50  0000 C CNN
F 1 "IMC-20948" H 4075 2223 50  0000 C CNN
F 2 "Package_DFN_QFN:QFN-24-1EP_3x3mm_P0.4mm_EP1.75x1.6mm" H 4075 2300 50  0001 C CNN
F 3 "" H 4075 3150 50  0001 C CNN
F 4 "ICM-20948" H 4075 3300 60  0001 C CNN "MPN"
	1    4075 3300
	1    0    0    -1  
$EndComp
Wire Wire Line
	3975 2275 3975 2600
Wire Wire Line
	4175 2275 4175 2600
Wire Wire Line
	3175 3300 3575 3300
Wire Wire Line
	3050 3200 3575 3200
Wire Wire Line
	4075 4000 4075 4625
Wire Wire Line
	4575 3500 5425 3500
Text HLabel 1800 5425 0    60   Input ~ 0
IMU_INT1
$Comp
L Transistor_FET:BSS138 Q3
U 1 1 5F4C2E6A
P 2400 5325
F 0 "Q3" V 2650 5325 50  0000 C CNN
F 1 "BSS138" V 2741 5325 50  0000 C CNN
F 2 "Package_TO_SOT_SMD:SOT-23" H 2600 5250 50  0001 L CIN
F 3 "https://www.fairchildsemi.com/datasheets/BS/BSS138.pdf" H 2400 5325 50  0001 L CNN
F 4 "BSS138" V 2400 5325 50  0001 C CNN "MPN"
	1    2400 5325
	0    -1   1    0   
$EndComp
Wire Wire Line
	2400 5125 2400 5025
Wire Wire Line
	2600 5425 2875 5425
Wire Wire Line
	2875 5075 2875 5025
Wire Wire Line
	2875 5025 2400 5025
Wire Wire Line
	2875 5375 2875 5425
Wire Wire Line
	2200 5425 1975 5425
Wire Wire Line
	1975 5375 1975 5425
Connection ~ 1975 5425
Wire Wire Line
	1975 5425 1800 5425
Wire Wire Line
	1975 4650 1975 5075
Text Label 2875 5025 1    60   ~ 0
VDDIO
Connection ~ 2875 5425
Text Label 1975 4650 0    60   ~ 0
3V3
Wire Wire Line
	3175 5425 3175 3600
Wire Wire Line
	3175 3600 3575 3600
Wire Wire Line
	2875 5425 3175 5425
Text HLabel 825  750  0    50   Input ~ 0
3V3
Text HLabel 825  900  0    50   Input ~ 0
1V8
$Comp
L Device:R R1
U 1 1 5F4D386A
P 1950 2800
F 0 "R1" H 2020 2846 50  0000 L CNN
F 1 "10k" H 2020 2755 50  0000 L CNN
F 2 "Resistor_SMD:R_0603_1608Metric" V 1880 2800 50  0001 C CNN
F 3 "" H 1950 2800 50  0001 C CNN
F 4 "CR0603-JW-103ELF" H 1950 2800 60  0001 C CNN "MPN"
	1    1950 2800
	-1   0    0    -1  
$EndComp
$Comp
L Device:R R2
U 1 1 5F4D4269
P 1950 3800
F 0 "R2" H 2020 3846 50  0000 L CNN
F 1 "10k" H 2020 3755 50  0000 L CNN
F 2 "Resistor_SMD:R_0603_1608Metric" V 1880 3800 50  0001 C CNN
F 3 "" H 1950 3800 50  0001 C CNN
F 4 "CR0603-JW-103ELF" H 1950 3800 60  0001 C CNN "MPN"
	1    1950 3800
	-1   0    0    -1  
$EndComp
$Comp
L Device:R R5
U 1 1 5F4D4C8E
P 2850 3800
F 0 "R5" H 2920 3846 50  0000 L CNN
F 1 "10k" H 2920 3755 50  0000 L CNN
F 2 "Resistor_SMD:R_0603_1608Metric" V 2780 3800 50  0001 C CNN
F 3 "" H 2850 3800 50  0001 C CNN
F 4 "CR0603-JW-103ELF" H 2850 3800 60  0001 C CNN "MPN"
	1    2850 3800
	-1   0    0    -1  
$EndComp
$Comp
L Device:R R6
U 1 1 5F4D508B
P 2875 5225
F 0 "R6" H 2945 5271 50  0000 L CNN
F 1 "10k" H 2945 5180 50  0000 L CNN
F 2 "Resistor_SMD:R_0603_1608Metric" V 2805 5225 50  0001 C CNN
F 3 "" H 2875 5225 50  0001 C CNN
F 4 "CR0603-JW-103ELF" H 2875 5225 60  0001 C CNN "MPN"
	1    2875 5225
	-1   0    0    -1  
$EndComp
$Comp
L Device:R R3
U 1 1 5F4D6548
P 1975 5225
F 0 "R3" H 2045 5271 50  0000 L CNN
F 1 "10k" H 2045 5180 50  0000 L CNN
F 2 "Resistor_SMD:R_0603_1608Metric" V 1905 5225 50  0001 C CNN
F 3 "" H 1975 5225 50  0001 C CNN
F 4 "CR0603-JW-103ELF" H 1975 5225 60  0001 C CNN "MPN"
	1    1975 5225
	-1   0    0    -1  
$EndComp
$Comp
L Device:C C6
U 1 1 5F4D84B6
P 4175 2125
F 0 "C6" H 4289 2171 50  0000 L CNN
F 1 "0.1uF" H 4289 2080 50  0000 L CNN
F 2 "Capacitor_SMD:C_0603_1608Metric" H 4213 1975 50  0001 C CNN
F 3 "" H 4175 2125 50  0001 C CNN
F 4 "C0603C104M4RAC7411" H 4175 2125 60  0001 C CNN "MPN"
	1    4175 2125
	1    0    0    1   
$EndComp
$Comp
L Device:C C7
U 1 1 5F4DB56F
P 5425 3675
F 0 "C7" H 5539 3721 50  0000 L CNN
F 1 "0.1uF" H 5539 3630 50  0000 L CNN
F 2 "Capacitor_SMD:C_0603_1608Metric" H 5463 3525 50  0001 C CNN
F 3 "" H 5425 3675 50  0001 C CNN
F 4 "C0603C104M4RAC7411" H 5425 3675 60  0001 C CNN "MPN"
	1    5425 3675
	-1   0    0    -1  
$EndComp
Wire Wire Line
	2850 3000 3025 3000
Wire Wire Line
	3025 3000 3025 3100
Wire Wire Line
	3025 3100 3575 3100
Connection ~ 2850 3000
$EndSCHEMATC
