EESchema Schematic File Version 4
LIBS:orishot-cache
EELAYER 30 0
EELAYER END
$Descr A4 11693 8268
encoding utf-8
Sheet 3 3
Title ""
Date ""
Rev ""
Comp ""
Comment1 ""
Comment2 ""
Comment3 ""
Comment4 ""
$EndDescr
$Comp
L dk_PMIC-Voltage-Regulators-Linear:LP5907MFX-3_3_NOPB U3
U 1 1 5D16ADB9
P 2300 2300
F 0 "U3" H 2300 2787 60  0000 C CNN
F 1 "TPS70618DBVR" H 2300 2681 60  0000 C CNN
F 2 "Package_TO_SOT_SMD:SOT-23-5" H 2500 2500 60  0001 L CNN
F 3 "" H 2500 2600 60  0001 L CNN
F 4 "TPS70618DBVR" H 2500 2800 60  0001 L CNN "MPN"
	1    2300 2300
	1    0    0    -1  
$EndComp
$Comp
L Device:C C10
U 1 1 5D16AED2
P 1400 2375
F 0 "C10" H 1515 2421 50  0000 L CNN
F 1 "1uF" H 1515 2330 50  0000 L CNN
F 2 "Capacitor_SMD:C_0603_1608Metric" H 1438 2225 50  0001 C CNN
F 3 "" H 1400 2375 50  0001 C CNN
F 4 "CC0603KRX5R8BB105" H 1400 2375 60  0001 C CNN "MPN"
	1    1400 2375
	1    0    0    -1  
$EndComp
Wire Wire Line
	1400 2225 1400 2100
Wire Wire Line
	1400 2100 2000 2100
Text GLabel 1600 750  0    60   Output ~ 0
GND
Wire Wire Line
	1600 750  1775 750 
Text Label 2000 750  0    60   ~ 0
GND
$Comp
L power:GND #PWR0114
U 1 1 5D16AFDC
P 1400 2675
F 0 "#PWR0114" H 1400 2425 50  0001 C CNN
F 1 "GND" H 1405 2502 50  0000 C CNN
F 2 "" H 1400 2675 50  0001 C CNN
F 3 "" H 1400 2675 50  0001 C CNN
	1    1400 2675
	1    0    0    -1  
$EndComp
Wire Wire Line
	1400 2675 1400 2525
$Comp
L power:GND #PWR0115
U 1 1 5D16AFFD
P 1775 750
F 0 "#PWR0115" H 1775 500 50  0001 C CNN
F 1 "GND" H 1780 577 50  0000 C CNN
F 2 "" H 1775 750 50  0001 C CNN
F 3 "" H 1775 750 50  0001 C CNN
	1    1775 750 
	1    0    0    -1  
$EndComp
Connection ~ 1775 750 
Wire Wire Line
	1775 750  2000 750 
$Comp
L power:GND #PWR0116
U 1 1 5D16B024
P 2300 2675
F 0 "#PWR0116" H 2300 2425 50  0001 C CNN
F 1 "GND" H 2305 2502 50  0000 C CNN
F 2 "" H 2300 2675 50  0001 C CNN
F 3 "" H 2300 2675 50  0001 C CNN
	1    2300 2675
	1    0    0    -1  
$EndComp
Wire Wire Line
	2300 2675 2300 2400
Wire Wire Line
	2600 2100 3275 2100
Wire Wire Line
	1400 2100 1125 2100
Connection ~ 1400 2100
Text HLabel 1125 2100 0    60   Input ~ 0
PWR_IN
$Comp
L Device:C C11
U 1 1 5D16B137
P 3275 2375
F 0 "C11" H 3390 2421 50  0000 L CNN
F 1 "2.2uF" H 3390 2330 50  0000 L CNN
F 2 "Capacitor_SMD:C_0603_1608Metric" H 3313 2225 50  0001 C CNN
F 3 "" H 3275 2375 50  0001 C CNN
F 4 "GRM188R61E225MA12D" H 3275 2375 60  0001 C CNN "MPN"
	1    3275 2375
	1    0    0    -1  
$EndComp
Wire Wire Line
	3275 2225 3275 2100
$Comp
L power:GND #PWR0117
U 1 1 5D16B1D3
P 3275 2675
F 0 "#PWR0117" H 3275 2425 50  0001 C CNN
F 1 "GND" H 3280 2502 50  0000 C CNN
F 2 "" H 3275 2675 50  0001 C CNN
F 3 "" H 3275 2675 50  0001 C CNN
	1    3275 2675
	1    0    0    -1  
$EndComp
Wire Wire Line
	3275 2675 3275 2525
Text HLabel 3900 2100 2    60   Output ~ 0
PWR_OUT
Wire Wire Line
	3900 2100 3275 2100
Connection ~ 3275 2100
$EndSCHEMATC
