EESchema Schematic File Version 4
LIBS:orishot-cache
EELAYER 30 0
EELAYER END
$Descr A4 11693 8268
encoding utf-8
Sheet 1 3
Title ""
Date ""
Rev ""
Comp ""
Comment1 ""
Comment2 ""
Comment3 ""
Comment4 ""
$EndDescr
$Comp
L zembia:ESP32-PICO-D4 U1
U 1 1 5F494567
P 3775 5000
F 0 "U1" H 4969 6946 50  0000 L CNN
F 1 "ESP32-PICO-D4" H 4969 6855 50  0000 L CNN
F 2 "zembia-footprints:ESP32-PICO-D4-QFN48" H 3775 5000 50  0001 C CNN
F 3 "" H 3775 5000 50  0001 C CNN
F 4 "ESP32-PICO-D4" H 3775 5000 50  0001 C CNN "MPN"
	1    3775 5000
	1    0    0    -1  
$EndComp
$Comp
L Device:C C3
U 1 1 5F497A52
P 2075 2850
F 0 "C3" V 2200 2775 50  0000 C CNN
F 1 "0.1uF" V 2125 2700 50  0000 C CNN
F 2 "Capacitor_SMD:C_0603_1608Metric" H 2113 2700 50  0001 C CNN
F 3 "~" H 2075 2850 50  0001 C CNN
F 4 "C0603C104M4RAC7411" H 2075 2850 50  0001 C CNN "MPN"
	1    2075 2850
	0    -1   -1   0   
$EndComp
Wire Wire Line
	2775 2850 2525 2850
Wire Wire Line
	2775 2750 2525 2750
Wire Wire Line
	2525 2750 2525 2850
Connection ~ 2525 2850
Wire Wire Line
	2525 2850 2225 2850
$Comp
L power:GND #PWR0101
U 1 1 5F49CD73
P 1825 2850
F 0 "#PWR0101" H 1825 2600 50  0001 C CNN
F 1 "GND" V 1830 2722 50  0000 R CNN
F 2 "" H 1825 2850 50  0001 C CNN
F 3 "" H 1825 2850 50  0001 C CNN
	1    1825 2850
	0    1    1    0   
$EndComp
Wire Wire Line
	1925 2850 1825 2850
$Comp
L Device:C C2
U 1 1 5F49E93D
P 1875 2500
F 0 "C2" H 1990 2546 50  0000 L CNN
F 1 "TBD" H 1990 2455 50  0000 L CNN
F 2 "Capacitor_SMD:C_0402_1005Metric" H 1913 2350 50  0001 C CNN
F 3 "~" H 1875 2500 50  0001 C CNN
F 4 "" H 1875 2500 50  0001 C CNN "MPN"
F 5 "DNP" H 1875 2500 50  0001 C CNN "DNP"
	1    1875 2500
	1    0    0    -1  
$EndComp
$Comp
L power:GND #PWR0102
U 1 1 5F4A1806
P 1875 2225
F 0 "#PWR0102" H 1875 1975 50  0001 C CNN
F 1 "GND" H 1880 2052 50  0000 C CNN
F 2 "" H 1875 2225 50  0001 C CNN
F 3 "" H 1875 2225 50  0001 C CNN
	1    1875 2225
	-1   0    0    1   
$EndComp
Wire Wire Line
	1875 2650 2300 2650
Wire Wire Line
	1875 2225 1875 2350
$Comp
L Device:C C1
U 1 1 5F4A44AB
P 1275 2500
F 0 "C1" V 1023 2500 50  0000 C CNN
F 1 "4.3nH" V 1114 2500 50  0000 C CNN
F 2 "Capacitor_SMD:C_0402_1005Metric" H 1313 2350 50  0001 C CNN
F 3 "~" H 1275 2500 50  0001 C CNN
F 4 "LQG15HS4N3B02D" H 1275 2500 50  0001 C CNN "MPN"
	1    1275 2500
	-1   0    0    1   
$EndComp
Wire Wire Line
	1650 2650 1725 2650
Connection ~ 1875 2650
$Comp
L Device:L L1
U 1 1 5F4A4CFB
P 1500 2650
F 0 "L1" H 1553 2696 50  0000 L CNN
F 1 "TBD" H 1553 2605 50  0000 L CNN
F 2 "Inductor_SMD:L_0402_1005Metric" H 1500 2650 50  0001 C CNN
F 3 "~" H 1500 2650 50  0001 C CNN
F 4 "ERJ-2GE0R00X" H 1500 2650 50  0001 C CNN "MPN"
	1    1500 2650
	0    1    1    0   
$EndComp
$Comp
L power:GND #PWR0104
U 1 1 5F4AF856
P 3225 1825
F 0 "#PWR0104" H 3225 1575 50  0001 C CNN
F 1 "GND" H 3230 1652 50  0000 C CNN
F 2 "" H 3225 1825 50  0001 C CNN
F 3 "" H 3225 1825 50  0001 C CNN
	1    3225 1825
	-1   0    0    1   
$EndComp
$Sheet
S 3450 5225 1075 300 
U 5F4B03F1
F0 "Sheet5F4B03F0" 50
F1 "ICM-20948.sch" 50
F2 "IMU_SDA" B R 4525 5400 50 
F3 "IMU_SCL" I R 4525 5475 50 
F4 "IMU_INT1" I R 4525 5275 50 
F5 "3V3" I L 3450 5275 50 
F6 "1V8" I L 3450 5350 50 
$EndSheet
Text Label 2350 2850 0    50   ~ 0
3V3
$Comp
L Device:C C4
U 1 1 5F4DEFB2
P 2075 3350
F 0 "C4" V 2200 3275 50  0000 C CNN
F 1 "0.1uF" V 2125 3200 50  0000 C CNN
F 2 "Capacitor_SMD:C_0603_1608Metric" H 2113 3200 50  0001 C CNN
F 3 "~" H 2075 3350 50  0001 C CNN
F 4 "C0603C104M4RAC7411" H 2075 3350 50  0001 C CNN "MPN"
	1    2075 3350
	0    -1   -1   0   
$EndComp
Wire Wire Line
	2225 3350 2775 3350
$Comp
L power:GND #PWR0105
U 1 1 5F4DF93E
P 1825 3350
F 0 "#PWR0105" H 1825 3100 50  0001 C CNN
F 1 "GND" V 1830 3222 50  0000 R CNN
F 2 "" H 1825 3350 50  0001 C CNN
F 3 "" H 1825 3350 50  0001 C CNN
	1    1825 3350
	0    1    1    0   
$EndComp
Wire Wire Line
	1925 3350 1825 3350
Text Label 3525 1750 1    50   ~ 0
3V3
Text Label 2550 2550 0    50   ~ 0
3V3
Wire Wire Line
	2550 2550 2775 2550
Wire Wire Line
	3225 1825 3225 2050
Wire Wire Line
	3525 2050 3525 1750
Text Label 4700 5400 2    50   ~ 0
SDA
Wire Wire Line
	4700 5400 4525 5400
Text Label 4700 5475 2    50   ~ 0
SCL
Wire Wire Line
	4700 5475 4525 5475
$Comp
L Device:Crystal_Small Y1
U 1 1 5F4969D2
P 2275 3900
F 0 "Y1" V 2229 3988 50  0000 L CNN
F 1 "Crystal_Small" V 2320 3988 50  0000 L CNN
F 2 "Crystal:Crystal_SMD_3215-2Pin_3.2x1.5mm" H 2275 3900 50  0001 C CNN
F 3 "~" H 2275 3900 50  0001 C CNN
F 4 "ABS07AIG-32.768KHZ-6-1-T" H 2275 3900 50  0001 C CNN "MPN"
	1    2275 3900
	0    1    1    0   
$EndComp
Wire Wire Line
	2275 3650 2775 3650
Wire Wire Line
	3325 4175 3325 4150
$Comp
L Device:C C8
U 1 1 5F4A0695
P 2050 3650
F 0 "C8" V 2175 3575 50  0000 C CNN
F 1 "22pF" V 2100 3500 50  0000 C CNN
F 2 "Capacitor_SMD:C_0603_1608Metric" H 2088 3500 50  0001 C CNN
F 3 "~" H 2050 3650 50  0001 C CNN
F 4 "CC0603JRNPO9BN220" H 2050 3650 50  0001 C CNN "MPN"
	1    2050 3650
	0    -1   -1   0   
$EndComp
$Comp
L Device:C C9
U 1 1 5F4A0BE9
P 2050 4175
F 0 "C9" V 2175 4100 50  0000 C CNN
F 1 "22pF" V 2100 4025 50  0000 C CNN
F 2 "Capacitor_SMD:C_0603_1608Metric" H 2088 4025 50  0001 C CNN
F 3 "~" H 2050 4175 50  0001 C CNN
F 4 "CC0603JRNPO9BN220" H 2050 4175 50  0001 C CNN "MPN"
	1    2050 4175
	0    1    1    0   
$EndComp
Wire Wire Line
	2275 3650 2275 3800
Wire Wire Line
	2275 4000 2275 4175
Wire Wire Line
	2275 4175 3325 4175
Wire Wire Line
	2200 4175 2275 4175
Connection ~ 2275 4175
Wire Wire Line
	2200 3650 2275 3650
Connection ~ 2275 3650
$Comp
L power:GND #PWR0110
U 1 1 5F4AC42F
P 1800 3650
F 0 "#PWR0110" H 1800 3400 50  0001 C CNN
F 1 "GND" V 1805 3522 50  0000 R CNN
F 2 "" H 1800 3650 50  0001 C CNN
F 3 "" H 1800 3650 50  0001 C CNN
	1    1800 3650
	0    1    1    0   
$EndComp
Wire Wire Line
	1800 3650 1900 3650
$Comp
L power:GND #PWR0111
U 1 1 5F4ACE1D
P 1775 4175
F 0 "#PWR0111" H 1775 3925 50  0001 C CNN
F 1 "GND" V 1780 4047 50  0000 R CNN
F 2 "" H 1775 4175 50  0001 C CNN
F 3 "" H 1775 4175 50  0001 C CNN
	1    1775 4175
	0    1    1    0   
$EndComp
Wire Wire Line
	1775 4175 1900 4175
$Sheet
S 9275 1225 850  175 
U 5F4B0BF9
F0 "Sheet5F4B0BF8" 50
F1 "LDO_1V8.sch" 50
F2 "PWR_IN" I L 9275 1300 50 
F3 "PWR_OUT" O R 10125 1300 50 
$EndSheet
Wire Wire Line
	1275 2650 1350 2650
Connection ~ 1275 2650
Wire Wire Line
	1275 2200 1275 2350
Wire Wire Line
	3825 2050 3825 1750
Text Label 3825 1750 1    50   ~ 0
3V3
Wire Wire Line
	4325 4150 4325 4325
Text Label 4325 4325 3    50   ~ 0
GPIO0
$Comp
L Device:R R7
U 1 1 5F4C2947
P 1150 3225
F 0 "R7" H 1220 3271 50  0000 L CNN
F 1 "2k" H 1220 3180 50  0000 L CNN
F 2 "Resistor_SMD:R_0603_1608Metric" V 1080 3225 50  0001 C CNN
F 3 "~" H 1150 3225 50  0001 C CNN
F 4 "CR0603-JW-202ELF" H 1150 3225 50  0001 C CNN "MPN"
	1    1150 3225
	1    0    0    -1  
$EndComp
Text Label 2425 3350 0    50   ~ 0
CHIP_PU
Text Label 1150 3450 2    50   ~ 0
CHIP_PU
Wire Wire Line
	1150 3450 1150 3375
Text Label 1150 3075 1    50   ~ 0
3V3
Text Label 3925 4375 3    50   ~ 0
3V3
Wire Wire Line
	3925 4375 3925 4150
Wire Wire Line
	3425 4150 3425 4350
Text Label 3425 4350 3    50   ~ 0
IMU_INT
Text Label 4525 5275 0    50   ~ 0
IMU_INT
Wire Wire Line
	9050 1300 9275 1300
Wire Wire Line
	10125 1300 10350 1300
Text Label 9050 1300 0    50   ~ 0
VBAT
Text Label 10350 1300 0    50   ~ 0
1V8
Text Label 3450 5350 2    50   ~ 0
1V8
Text Label 3450 5275 2    50   ~ 0
3V3
$Comp
L Device:Antenna AE1
U 1 1 5F4E3350
P 700 2350
F 0 "AE1" H 780 2339 50  0000 L CNN
F 1 "Antenna" H 780 2248 50  0000 L CNN
F 2 "zembia-footprints:479480001" H 700 2350 50  0001 C CNN
F 3 "~" H 700 2350 50  0001 C CNN
F 4 "479480001" H 700 2350 50  0001 C CNN "MPN"
	1    700  2350
	1    0    0    -1  
$EndComp
Wire Wire Line
	700  2550 700  2650
Wire Wire Line
	700  2650 1175 2650
$Comp
L Connector_Generic:Conn_01x06 J2
U 1 1 5F4E2EA5
P 6700 2700
F 0 "J2" H 6780 2692 50  0000 L CNN
F 1 "Conn_01x06" H 6780 2601 50  0000 L CNN
F 2 "Connector_JST:JST_PH_B6B-PH-SM4-TB_1x06-1MP_P2.00mm_Vertical" H 6700 2700 50  0001 C CNN
F 3 "~" H 6700 2700 50  0001 C CNN
F 4 "1775470-6" H 6700 2700 50  0001 C CNN "MPN"
	1    6700 2700
	1    0    0    -1  
$EndComp
$Comp
L power:GND #PWR0103
U 1 1 5F4E53AC
P 6250 3050
F 0 "#PWR0103" H 6250 2800 50  0001 C CNN
F 1 "GND" H 6255 2877 50  0000 C CNN
F 2 "" H 6250 3050 50  0001 C CNN
F 3 "" H 6250 3050 50  0001 C CNN
	1    6250 3050
	1    0    0    -1  
$EndComp
Wire Wire Line
	6500 3000 6250 3000
Wire Wire Line
	6250 3000 6250 3050
Text Label 6500 2900 2    50   ~ 0
GPIO0
Text Label 6500 2800 2    50   ~ 0
CHIP_PU
Text Label 4125 2050 1    50   ~ 0
RXD
Text Label 6500 2700 2    50   ~ 0
RXD
Text Label 4025 2050 1    50   ~ 0
TXD
Text Label 6500 2600 2    50   ~ 0
TXD
Text Label 6500 2500 2    50   ~ 0
3V3
Text Label 2475 2650 0    50   ~ 0
LNA_IN
Connection ~ 2300 2650
Wire Wire Line
	2300 2650 2775 2650
$Comp
L Connector:TestPoint TP2
U 1 1 5F502E42
P 1725 2650
F 0 "TP2" H 1783 2768 50  0000 L CNN
F 1 "TestPoint" H 1783 2677 50  0000 L CNN
F 2 "zembia-footprints:uwT0.10_1.02_0.10_1.02_1.00" H 1925 2650 50  0001 C CNN
F 3 "~" H 1925 2650 50  0001 C CNN
F 4 "DNP" H 1725 2650 50  0001 C CNN "DNP"
	1    1725 2650
	1    0    0    -1  
$EndComp
Connection ~ 1725 2650
$Comp
L Connector:TestPoint TP3
U 1 1 5F50E805
P 1175 2650
F 0 "TP3" H 1233 2768 50  0000 L CNN
F 1 "TestPoint" H 1233 2677 50  0000 L CNN
F 2 "zembia-footprints:uwT0.10_1.02_0.10_1.02_1.00" H 1375 2650 50  0001 C CNN
F 3 "~" H 1375 2650 50  0001 C CNN
F 4 "DNP" H 1175 2650 50  0001 C CNN "DNP"
	1    1175 2650
	1    0    0    -1  
$EndComp
Connection ~ 1175 2650
Wire Wire Line
	1175 2650 1275 2650
Wire Wire Line
	1725 2650 1875 2650
$Comp
L Amplifier_Operational:OPA330xxDCK U4
U 1 1 5F4E3BF7
P 8550 4575
F 0 "U4" H 8894 4621 50  0000 L CNN
F 1 "TLV9001IDCKR" H 8894 4530 50  0000 L CNN
F 2 "Package_TO_SOT_SMD:SOT-353_SC-70-5" H 8550 4575 50  0001 L CNN
F 3 "http://www.ti.com/lit/ds/symlink/opa330.pdf" H 8550 4575 50  0001 C CNN
F 4 "TLV9001IDCKR" H 8550 4575 50  0001 C CNN "MPN"
	1    8550 4575
	1    0    0    -1  
$EndComp
Text Label 8450 4275 2    50   ~ 0
3V3
$Comp
L power:GND #PWR0118
U 1 1 5F4E62CA
P 8450 4950
F 0 "#PWR0118" H 8450 4700 50  0001 C CNN
F 1 "GND" H 8455 4777 50  0000 C CNN
F 2 "" H 8450 4950 50  0001 C CNN
F 3 "" H 8450 4950 50  0001 C CNN
	1    8450 4950
	1    0    0    -1  
$EndComp
Wire Wire Line
	8450 4950 8450 4875
Wire Wire Line
	8850 5275 8125 5275
Wire Wire Line
	8125 5275 8125 4675
Wire Wire Line
	8125 4675 8250 4675
Wire Wire Line
	8250 4475 7800 4475
Wire Wire Line
	8850 4575 8850 5275
Wire Wire Line
	8850 4575 9600 4575
Connection ~ 8850 4575
Text Label 9600 4575 0    50   ~ 0
VBAT_ADC
$Comp
L power:GND #PWR0119
U 1 1 5F4EC551
P 7800 4875
F 0 "#PWR0119" H 7800 4625 50  0001 C CNN
F 1 "GND" H 7805 4702 50  0000 C CNN
F 2 "" H 7800 4875 50  0001 C CNN
F 3 "" H 7800 4875 50  0001 C CNN
	1    7800 4875
	1    0    0    -1  
$EndComp
Wire Wire Line
	7800 4875 7800 4775
$Comp
L Device:R R9
U 1 1 5F4F0794
P 7800 4625
F 0 "R9" H 7870 4671 50  0000 L CNN
F 1 "R" H 7870 4580 50  0000 L CNN
F 2 "Resistor_SMD:R_0603_1608Metric" V 7730 4625 50  0001 C CNN
F 3 "~" H 7800 4625 50  0001 C CNN
	1    7800 4625
	1    0    0    -1  
$EndComp
$Comp
L Regulator_Linear:TLV75515PDBV U5
U 1 1 5F4F90B7
P 9050 2725
F 0 "U5" H 9050 3067 50  0000 C CNN
F 1 "TLV75515PDBV" H 9050 2976 50  0000 C CNN
F 2 "Package_TO_SOT_SMD:SOT-23-5" H 9050 3025 50  0001 C CIN
F 3 "http://www.ti.com/lit/ds/symlink/tlv755p.pdf" H 9050 2725 50  0001 C CNN
F 4 "TLV75733PDBVR" H 9050 2725 50  0001 C CNN "MPN"
	1    9050 2725
	1    0    0    -1  
$EndComp
$Comp
L Device:C C12
U 1 1 5F4FAD30
P 8225 2900
F 0 "C12" V 8350 2825 50  0000 C CNN
F 1 "1uF" V 8275 2750 50  0000 C CNN
F 2 "Capacitor_SMD:C_0603_1608Metric" H 8263 2750 50  0001 C CNN
F 3 "~" H 8225 2900 50  0001 C CNN
F 4 "LMK107B7105KA-T" H 8225 2900 50  0001 C CNN "MPN"
	1    8225 2900
	-1   0    0    1   
$EndComp
$Comp
L Device:C C13
U 1 1 5F4FDC1C
P 10075 2875
F 0 "C13" V 10200 2800 50  0000 C CNN
F 1 "1uF" V 10125 2725 50  0000 C CNN
F 2 "Capacitor_SMD:C_0603_1608Metric" H 10113 2725 50  0001 C CNN
F 3 "~" H 10075 2875 50  0001 C CNN
F 4 "LMK107B7105KA-T" H 10075 2875 50  0001 C CNN "MPN"
	1    10075 2875
	-1   0    0    1   
$EndComp
Wire Wire Line
	9350 2625 10075 2625
Wire Wire Line
	10075 2625 10075 2725
Wire Wire Line
	8225 3050 8225 3150
Wire Wire Line
	10075 3150 10075 3025
Wire Wire Line
	8225 2750 8225 2625
Wire Wire Line
	8225 2625 8650 2625
Wire Wire Line
	8750 2725 8650 2725
Wire Wire Line
	8650 2725 8650 2625
Connection ~ 8650 2625
Wire Wire Line
	8650 2625 8750 2625
Wire Wire Line
	9050 3025 9050 3150
Wire Wire Line
	8225 3150 9050 3150
Connection ~ 9050 3150
Wire Wire Line
	9050 3150 10075 3150
$Comp
L power:GND #PWR0120
U 1 1 5F506029
P 9050 3150
F 0 "#PWR0120" H 9050 2900 50  0001 C CNN
F 1 "GND" H 9055 2977 50  0000 C CNN
F 2 "" H 9050 3150 50  0001 C CNN
F 3 "" H 9050 3150 50  0001 C CNN
	1    9050 3150
	1    0    0    -1  
$EndComp
Text Label 8225 2625 2    50   ~ 0
VBAT
Text Label 10075 2625 0    50   ~ 0
3V3
$Comp
L Device:C C14
U 1 1 5F50ECB6
P 3525 1600
F 0 "C14" V 3650 1525 50  0000 C CNN
F 1 "0.1uF" V 3575 1450 50  0000 C CNN
F 2 "Capacitor_SMD:C_0603_1608Metric" H 3563 1450 50  0001 C CNN
F 3 "~" H 3525 1600 50  0001 C CNN
F 4 "C0603C104M4RAC7411" H 3525 1600 50  0001 C CNN "MPN"
	1    3525 1600
	-1   0    0    1   
$EndComp
$Comp
L Device:C C15
U 1 1 5F50FDAF
P 3825 1600
F 0 "C15" V 3950 1525 50  0000 C CNN
F 1 "0.1uF" V 3875 1450 50  0000 C CNN
F 2 "Capacitor_SMD:C_0603_1608Metric" H 3863 1450 50  0001 C CNN
F 3 "~" H 3825 1600 50  0001 C CNN
F 4 "C0603C104M4RAC7411" H 3825 1600 50  0001 C CNN "MPN"
	1    3825 1600
	-1   0    0    1   
$EndComp
$Comp
L power:GND #PWR0121
U 1 1 5F5102B3
P 3525 1450
F 0 "#PWR0121" H 3525 1200 50  0001 C CNN
F 1 "GND" H 3530 1277 50  0000 C CNN
F 2 "" H 3525 1450 50  0001 C CNN
F 3 "" H 3525 1450 50  0001 C CNN
	1    3525 1450
	-1   0    0    1   
$EndComp
$Comp
L power:GND #PWR0122
U 1 1 5F51065A
P 3825 1450
F 0 "#PWR0122" H 3825 1200 50  0001 C CNN
F 1 "GND" H 3830 1277 50  0000 C CNN
F 2 "" H 3825 1450 50  0001 C CNN
F 3 "" H 3825 1450 50  0001 C CNN
	1    3825 1450
	-1   0    0    1   
$EndComp
Connection ~ 7800 4475
Wire Wire Line
	7800 4075 7800 4175
Text Label 7800 4075 0    50   ~ 0
VBAT
$Comp
L Device:R R8
U 1 1 5F4EBC18
P 7800 4325
F 0 "R8" H 7870 4371 50  0000 L CNN
F 1 "R" H 7870 4280 50  0000 L CNN
F 2 "Resistor_SMD:R_0603_1608Metric" V 7730 4325 50  0001 C CNN
F 3 "~" H 7800 4325 50  0001 C CNN
	1    7800 4325
	1    0    0    -1  
$EndComp
Text Label 5050 6675 2    50   ~ 0
SDA
Text Label 5050 6575 2    50   ~ 0
SCL
$Comp
L power:GND #PWR0123
U 1 1 5F5236E9
P 4800 6375
F 0 "#PWR0123" H 4800 6125 50  0001 C CNN
F 1 "GND" V 4805 6247 50  0000 R CNN
F 2 "" H 4800 6375 50  0001 C CNN
F 3 "" H 4800 6375 50  0001 C CNN
	1    4800 6375
	0    1    1    0   
$EndComp
Wire Wire Line
	4800 6375 4950 6375
Wire Wire Line
	5050 6475 4950 6475
Wire Wire Line
	4950 6475 4950 6375
Connection ~ 4950 6375
Wire Wire Line
	4950 6375 5050 6375
$Comp
L power:GND #PWR0124
U 1 1 5F526306
P 5600 7300
F 0 "#PWR0124" H 5600 7050 50  0001 C CNN
F 1 "GND" V 5605 7172 50  0000 R CNN
F 2 "" H 5600 7300 50  0001 C CNN
F 3 "" H 5600 7300 50  0001 C CNN
	1    5600 7300
	1    0    0    -1  
$EndComp
Wire Wire Line
	5600 7175 5600 7300
Wire Wire Line
	5050 6275 4950 6275
Wire Wire Line
	4950 6275 4950 6375
$Comp
L power:GND #PWR0125
U 1 1 5F52BA08
P 4800 6775
F 0 "#PWR0125" H 4800 6525 50  0001 C CNN
F 1 "GND" V 4805 6647 50  0000 R CNN
F 2 "" H 4800 6775 50  0001 C CNN
F 3 "" H 4800 6775 50  0001 C CNN
	1    4800 6775
	0    1    1    0   
$EndComp
Wire Wire Line
	5050 6775 4800 6775
$Comp
L power:GND #PWR0126
U 1 1 5F52E279
P 6200 6275
F 0 "#PWR0126" H 6200 6025 50  0001 C CNN
F 1 "GND" V 6205 6147 50  0000 R CNN
F 2 "" H 6200 6275 50  0001 C CNN
F 3 "" H 6200 6275 50  0001 C CNN
	1    6200 6275
	0    -1   -1   0   
$EndComp
Wire Wire Line
	6100 6275 6200 6275
$Comp
L Device:C C16
U 1 1 5F5326D7
P 6800 6625
F 0 "C16" V 6925 6550 50  0000 C CNN
F 1 "1uF" V 6850 6475 50  0000 C CNN
F 2 "Capacitor_SMD:C_0603_1608Metric" H 6838 6475 50  0001 C CNN
F 3 "~" H 6800 6625 50  0001 C CNN
F 4 "LMK107B7105KA-T" H 6800 6625 50  0001 C CNN "MPN"
	1    6800 6625
	-1   0    0    1   
$EndComp
Wire Wire Line
	6100 6375 6225 6375
Wire Wire Line
	6800 6375 6800 6475
$Comp
L power:GND #PWR0127
U 1 1 5F5357EF
P 6800 6850
F 0 "#PWR0127" H 6800 6600 50  0001 C CNN
F 1 "GND" V 6805 6722 50  0000 R CNN
F 2 "" H 6800 6850 50  0001 C CNN
F 3 "" H 6800 6850 50  0001 C CNN
	1    6800 6850
	1    0    0    -1  
$EndComp
Wire Wire Line
	6800 6775 6800 6850
Text Label 6100 6575 0    50   ~ 0
VBAT_ADC
Wire Wire Line
	6100 6475 6225 6475
Wire Wire Line
	6225 6475 6225 6375
Connection ~ 6225 6375
Wire Wire Line
	6225 6375 6800 6375
Text Label 6800 6375 2    50   ~ 0
3V3
$Comp
L zembia:ltc2487 U6
U 1 1 5F51E662
P 5150 7275
F 0 "U6" H 5575 8630 50  0000 C CNN
F 1 "ltc2487" H 5575 8539 50  0000 C CNN
F 2 "Package_DFN_QFN:DFN-14-1EP_3x4mm_P0.5mm_EP1.7x3.3mm" H 5050 7775 50  0001 C CNN
F 3 "" H 5050 7775 50  0001 C CNN
F 4 "LTC2487CDE#PBF" H 5575 8448 50  0000 C CNN "MPN"
	1    5150 7275
	1    0    0    -1  
$EndComp
$Comp
L power:GND #PWR0112
U 1 1 5F4BBCCB
P 1275 2200
F 0 "#PWR0112" H 1275 1950 50  0001 C CNN
F 1 "GND" H 1280 2027 50  0000 C CNN
F 2 "" H 1275 2200 50  0001 C CNN
F 3 "" H 1275 2200 50  0001 C CNN
	1    1275 2200
	-1   0    0    1   
$EndComp
$Comp
L Connector:TestPoint TP1
U 1 1 5F5010B3
P 2300 2650
F 0 "TP1" H 2358 2768 50  0000 L CNN
F 1 "TestPoint" H 2358 2677 50  0000 L CNN
F 2 "zembia-footprints:uwT0.50_0.30_1.02_1.02_2.00" H 2500 2650 50  0001 C CNN
F 3 "~" H 2500 2650 50  0001 C CNN
F 4 "DNP" H 2300 2650 50  0001 C CNN "DNP"
	1    2300 2650
	1    0    0    -1  
$EndComp
$Comp
L Mechanical:MountingHole_Pad H1
U 1 1 5F762467
P 6375 1125
F 0 "H1" H 6475 1174 50  0000 L CNN
F 1 "MountingHole_Pad" H 6475 1083 50  0000 L CNN
F 2 "MountingHole:MountingHole_3.2mm_M3_Pad_Via" H 6375 1125 50  0001 C CNN
F 3 "~" H 6375 1125 50  0001 C CNN
F 4 "DNP" H 6375 1125 50  0001 C CNN "DNP"
	1    6375 1125
	1    0    0    -1  
$EndComp
Text Label 5675 1225 2    50   ~ 0
VBAT
$Comp
L power:GND #PWR0113
U 1 1 5F765019
P 6375 1225
F 0 "#PWR0113" H 6375 975 50  0001 C CNN
F 1 "GND" H 6380 1052 50  0000 C CNN
F 2 "" H 6375 1225 50  0001 C CNN
F 3 "" H 6375 1225 50  0001 C CNN
	1    6375 1225
	1    0    0    -1  
$EndComp
$Comp
L Mechanical:MountingHole_Pad H2
U 1 1 5F76A74E
P 5675 1125
F 0 "H2" H 5775 1174 50  0000 L CNN
F 1 "MountingHole_Pad" H 5775 1083 50  0000 L CNN
F 2 "MountingHole:MountingHole_3.2mm_M3_Pad_Via" H 5675 1125 50  0001 C CNN
F 3 "~" H 5675 1125 50  0001 C CNN
F 4 "DNP" H 5675 1125 50  0001 C CNN "DNP"
	1    5675 1125
	1    0    0    -1  
$EndComp
Wire Wire Line
	4425 4150 4425 4325
Text Label 4425 4325 3    50   ~ 0
SDA
Text Label 4125 4150 3    50   ~ 0
SCL
NoConn ~ 4925 3650
$Comp
L Device:C C17
U 1 1 5F778CCD
P 4425 1600
F 0 "C17" V 4550 1525 50  0000 C CNN
F 1 "0.1uF" V 4475 1450 50  0000 C CNN
F 2 "Capacitor_SMD:C_0603_1608Metric" H 4463 1450 50  0001 C CNN
F 3 "~" H 4425 1600 50  0001 C CNN
F 4 "C0603C104M4RAC7411" H 4425 1600 50  0001 C CNN "MPN"
	1    4425 1600
	-1   0    0    1   
$EndComp
$Comp
L power:GND #PWR0128
U 1 1 5F77933D
P 4425 1450
F 0 "#PWR0128" H 4425 1200 50  0001 C CNN
F 1 "GND" H 4430 1277 50  0000 C CNN
F 2 "" H 4425 1450 50  0001 C CNN
F 3 "" H 4425 1450 50  0001 C CNN
	1    4425 1450
	-1   0    0    1   
$EndComp
Text Label 4425 1750 2    50   ~ 0
3V3
Wire Wire Line
	4425 1750 4425 2050
$Comp
L Device:LED D1
U 1 1 5F7770E8
P 6000 4300
F 0 "D1" V 6039 4183 50  0000 R CNN
F 1 "LED" V 5948 4183 50  0000 R CNN
F 2 "LED_SMD:LED_0603_1608Metric" H 6000 4300 50  0001 C CNN
F 3 "~" H 6000 4300 50  0001 C CNN
F 4 "LTST-C190KGKT" V 6000 4300 50  0001 C CNN "MPN"
	1    6000 4300
	0    -1   -1   0   
$EndComp
$Comp
L power:GND #PWR0129
U 1 1 5F77A10F
P 6000 4625
F 0 "#PWR0129" H 6000 4375 50  0001 C CNN
F 1 "GND" H 6005 4452 50  0000 C CNN
F 2 "" H 6000 4625 50  0001 C CNN
F 3 "" H 6000 4625 50  0001 C CNN
	1    6000 4625
	1    0    0    -1  
$EndComp
Wire Wire Line
	6000 4450 6000 4625
Wire Wire Line
	6000 4050 6000 4150
$Comp
L Device:Jumper_NO_Small JP1
U 1 1 5F77F14B
P 5900 3650
F 0 "JP1" H 5900 3835 50  0000 C CNN
F 1 "Jumper_NO_Small" H 5900 3744 50  0000 C CNN
F 2 "Jumper:SolderJumper-2_P1.3mm_Open_RoundedPad1.0x1.5mm" H 5900 3650 50  0001 C CNN
F 3 "~" H 5900 3650 50  0001 C CNN
F 4 "DNP" H 5900 3650 50  0001 C CNN "DNP"
	1    5900 3650
	1    0    0    -1  
$EndComp
Wire Wire Line
	6000 3650 6000 3750
Wire Wire Line
	4025 4150 4025 4350
Text Label 5800 3650 2    50   ~ 0
LED
$Comp
L Device:R R10
U 1 1 5F78565A
P 6000 3900
F 0 "R10" H 6070 3946 50  0000 L CNN
F 1 "R" H 6070 3855 50  0000 L CNN
F 2 "Resistor_SMD:R_0603_1608Metric" V 5930 3900 50  0001 C CNN
F 3 "~" H 6000 3900 50  0001 C CNN
F 4 "CR0603-JW-121ELF" H 6000 3900 50  0001 C CNN "MPN"
	1    6000 3900
	1    0    0    -1  
$EndComp
Text Label 4025 4350 3    50   ~ 0
LED
$EndSCHEMATC
